{
  "version": "2",
  "templates": [
    {
      "type": 1,
      "title": "Registry",
      "description": "Docker image registry",
      "categories": ["docker"],
      "platform": "linux",
      "logo": "https://portainer-io-assets.sfo2.digitaloceanspaces.com/logos/registry.png",
      "image": "registry:latest",
      "ports": ["5000/tcp"],
      "volumes": [
        {
          "container": "/var/lib/registry"
        }
      ]
    },
    {
      "type": 1,
      "title": "MySQL",
      "description": "The most popular open-source database",
      "categories": ["database"],
      "platform": "linux",
      "logo": "https://portainer-io-assets.sfo2.digitaloceanspaces.com/logos/mysql.png",
      "image": "mysql/mysql-server:5.7",
      "env": [
        {
          "name": "MYSQL_ROOT_PASSWORD",
          "label": "Root password"
        },
        {
          "name": "MYSQL_ROOT_HOST",
          "default": "%",
          "preset": true
        }
      ],
      "ports": ["3306/tcp"],
      "volumes": [
        {
          "container": "/var/lib/mysql"
        }
      ]
    },
    {
      "type": 1,
      "title": "Minio",
      "description": "A distributed object storage server built for cloud applications and devops",
      "categories": ["storage"],
      "platform": "linux",
      "logo": "https://portainer-io-assets.sfo2.digitaloceanspaces.com/logos/minio.png",
      "image": "quay.io/minio/minio:latest",
      "ports": ["9000/tcp", "9001/tcp"],
      "env": [
        {
          "name": "MINIO_ROOT_USER",
          "label": "Root user"
        },
        {
          "name": "MINIO_ROOT_PASSWORD",
          "label": "Root password"
        }
      ],
      "volumes": [
        {
          "container": "/data"
        },
        {
          "container": "/root/.minio"
        }
      ],
      "command": "server /data --console-address ':9001'"
    },
    {
      "type": 1,
      "title": "Scality S3",
      "description": "Standalone AWS S3 protocol server",
      "categories": ["storage"],
      "platform": "linux",
      "logo": "https://portainer-io-assets.sfo2.digitaloceanspaces.com/logos/scality-s3.png",
      "image": "scality/s3server",
      "ports": ["8000/tcp"],
      "env": [
        {
          "name": "SCALITY_ACCESS_KEY",
          "label": "Scality S3 access key"
        },
        {
          "name": "SCALITY_SECRET_KEY",
          "label": "Scality S3 secret key"
        }
      ],
      "volumes": [
        {
          "container": "/usr/src/app/localData"
        },
        {
          "container": "/usr/src/app/localMetadata"
        }
      ]
    },
    {
      "type": 3,
      "title": "FDO",
      "description": "FDO",
      "platform": "linux",
      "logo": "https://portainer-io-assets.sfo2.digitaloceanspaces.com/logos/intel.png",
      "repository": {
        "url": "https://github.com/portainer/templates",
        "stackfile": "stacks/fdo/docker-stack.yml"
      },
      "env": [
        {
          "name": "owner_api_user",
          "label": "API Username"
        },
        {
          "name": "owner_api_password",
          "label": "API Password"
        }
      ]
    },
    {
      "type": 3,
      "title": "Ohif Secure",
      "description": "Ohif with secured login",
      "platform": "linux",
      "logo": "https://portainer-io-assets.sfo2.digitaloceanspaces.com/logos/intel.png",
      "repository": {
        "url": "https://github.com/portainer/templates",
        "stackfile": "stacks/fdo/docker-stack.yml"
      },
      "env": [
        {
          "name ": "SYSLOG_HOST",
          "label": "Syslog Host",
          "description": "Host used to log",
          "default": "logstash"
        },
        {
          "name": "SYSLOG_PORT",
          "label": "Port of syslog",
          "description": "Port where syslog server is listen",          
          "default": "8514"
        },
        {
          "name": "SYSLOG_PROTOCOL",
          "label": "Syslog Protcol",
          "description": "Protocol used in syslog",          
          "default": "TLS"
        },
        {
          "name": "STORAGE_DIR",
          "label": "Path of storage",
          "description": "Path of storage used to keep images",          
          "default": "/storage/fs1"
        },
        {
          "name": "POSTGRES_DB",
          "label": "DB in postgres",
          "description": "Name of database ins postgres server",          
          "default": "pacsdb"
        },
        {
          "name": "POSTGRES_USER",
          "label": "Postgres User",
          "description": "Name of user in postgres server",          
          "default": "pacs"
        },
        {
          "name": "POSTGRES_PASSWORD",
          "label": "Postgress password",
          "description": "Password to acess postgres server",          
          "default": "pacs"
        },
        {
          "name": "AUTH_SERVER_URL",
          "label": "Auth Server url",
          "description": "Url of auth",          
          "default": "http://dockerhost/auth"
        },
        {
          "name": "TZ",
          "label": "Time zone",
          "description": "Time zone used in stack",          
          "default": "America/Sao_Paulo"
        },
        {
          "name": "NODE_TLS_REJECT_UNAUTHORIZED",
          "label": "NODE_TLS_REJECT_UNAUTHORIZED",
          "description": "",          
          "default": "0"
        },
        {
          "name": "WILDFLY_ADMIN_PASSWORD",
          "label": "Wildfly admin password",
          "description": "Password wildfly's admin ",          
          "default": "admin"
        },
        {
          "name": "WILDFLY_ADMIN_USER",
          "label": "Wildfly's admin user",
          "description": "",          
          "default": "admin"
        }
      ]
    }    
  ]
}
